<svg width="54" height="63" viewBox="0 0 54 63" fill="none" xmlns="http://www.w3.org/2000/svg">
<path d="M23.7444 62.0638C36.5982 62.0638 47.0183 51.6437 47.0183 38.7899C47.0183 25.936 36.5982 15.5159 23.7444 15.5159C10.8905 15.5159 0.470428 25.936 0.470428 38.7899C0.470428 51.6437 10.8905 62.0638 23.7444 62.0638Z" fill="#00BFA6"/>
<path d="M31.855 11.1327C29.7477 10.8647 27.6149 10.8647 25.5076 11.1327C20.8128 11.7491 16.3934 13.6994 12.7737 16.7521C9.15405 19.8049 6.48612 23.8319 5.08647 28.3554C4.4499 30.4169 4.08941 32.5537 4.01444 34.7099C4.00388 35.0096 3.99681 35.3129 3.99681 35.6162C4.00335 42.1609 6.60613 48.4357 11.234 53.0635C15.8618 57.6913 22.1366 60.2941 28.6813 60.3006C29.2067 60.3006 29.7321 60.283 30.2505 60.2513C31.4673 60.1749 32.6768 60.0075 33.8686 59.7505C39.56 58.5266 44.6358 55.3308 48.1995 50.7276C51.7632 46.1244 53.5855 40.4098 53.3446 34.5933C53.1037 28.7768 50.8151 23.2325 46.8829 18.9397C42.9508 14.6469 37.6281 11.8818 31.855 11.1327H31.855ZM36.4075 58.3188H36.404C34.416 58.9972 32.3468 59.4087 30.2505 59.5425C29.7321 59.5777 29.2067 59.5954 28.6813 59.5954C22.324 59.5876 16.2293 57.0587 11.734 52.5634C7.23871 48.0681 4.70984 41.9735 4.70206 35.6162C4.70206 35.3129 4.70912 35.0096 4.71968 34.7099C4.96211 28.5144 7.59169 22.6528 12.058 18.3521C16.5243 14.0515 22.481 11.6452 28.6813 11.637C34.3623 11.6373 39.8586 13.6544 44.1912 17.329C48.5237 21.0037 51.411 26.097 52.3386 31.7018C53.2663 37.3065 52.174 43.0586 49.2564 47.9331C46.3388 52.8077 41.7854 56.4882 36.4075 58.3188H36.4075Z" fill="#3F3D56"/>
<path d="M29.0339 13.0475H28.3286V17.9844H29.0339V13.0475Z" fill="#3F3D56"/>
<path d="M12.9722 19.4084L12.4735 19.9071L15.9644 23.398L16.4631 22.8993L12.9722 19.4084Z" fill="#3F3D56"/>
<path d="M6.1126 35.2635V35.9688H11.0495V35.2635H6.1126Z" fill="#3F3D56"/>
<path d="M12.4735 51.3253L12.9722 51.824L16.4631 48.333L15.9644 47.8343L12.4735 51.3253Z" fill="#3F3D56"/>
<path d="M40.8995 22.8993L41.3982 23.398L44.8891 19.9071L44.3904 19.4083L40.8995 22.8993Z" fill="#3F3D56"/>
<path d="M46.313 35.2635V35.9688H51.2499V35.2635H46.313Z" fill="#3F3D56"/>
<path d="M41.3982 47.8344L40.8995 48.3331L44.3904 51.824L44.8891 51.3253L41.3982 47.8344Z" fill="#3F3D56"/>
<path d="M29.0339 53.2479H28.3286V58.1848H29.0339V53.2479Z" fill="#3F3D56"/>
<path d="M29.7392 34.2056C29.434 33.9767 29.0628 33.853 28.6813 33.853C28.2998 33.853 27.9286 33.9767 27.6234 34.2056C27.4144 34.3643 27.2424 34.5665 27.1191 34.7981C26.9629 35.0963 26.8953 35.433 26.9244 35.7684C26.9534 36.1038 27.0779 36.4239 27.2831 36.6909C27.4882 36.9578 27.7655 37.1604 28.0822 37.2748C28.3989 37.3891 28.7416 37.4104 29.07 37.3362C29.3984 37.2619 29.6987 37.0952 29.9353 36.8557C30.172 36.6163 30.3351 36.3141 30.4055 35.9848C30.4759 35.6556 30.4505 35.3131 30.3325 34.9978C30.2144 34.6825 30.0085 34.4076 29.7392 34.2056H29.7392ZM28.6813 36.6741C28.4009 36.6733 28.1323 36.5615 27.9341 36.3633C27.7359 36.1651 27.6242 35.8965 27.6234 35.6162C27.6247 35.4022 27.6898 35.1935 27.8103 35.0167C27.9136 34.867 28.0538 34.7466 28.2173 34.667C28.3808 34.5874 28.5621 34.5513 28.7436 34.5622C28.9251 34.5732 29.1007 34.6308 29.2535 34.7295C29.4062 34.8281 29.5309 34.9646 29.6155 35.1255C29.7001 35.2865 29.7418 35.4666 29.7364 35.6484C29.731 35.8301 29.6789 36.0074 29.5849 36.1632C29.491 36.3189 29.3584 36.4477 29.2001 36.5372C29.0418 36.6267 28.8631 36.6738 28.6813 36.6741V36.6741Z" fill="#3F3D56"/>
<path d="M31.855 4.93687H25.5075V11.2843H31.855V4.93687Z" fill="#3F3D56"/>
<path d="M28.6813 5.99479C33.3554 5.99479 37.1445 4.6528 37.1445 2.99738C37.1445 1.34196 33.3554 -1.90735e-05 28.6813 -1.90735e-05C24.0072 -1.90735e-05 20.218 1.34196 20.218 2.99738C20.218 4.6528 24.0072 5.99479 28.6813 5.99479Z" fill="#3F3D56"/>
<path d="M29.7392 22.216H27.6234V34.2056H29.7392V22.216Z" fill="#3F3D56"/>
</svg>
